{
	"id": "4271bde1-4a30-404e-8551-c11e35f05381",
	"name": "RapidApi-COVID19",
	"values": [
		{
			"key": "x-rapidapi-key",
			"value": "bbef2ecc58mshbe28a09ce2a3a21p1c83bfjsn241fc1578e2e",
			"enabled": true
		},
		{
			"key": "x-rapidapi-host",
			"value": "covid-193.p.rapidapi.com",
			"enabled": true
		},
		{
			"key": "BaseURL",
			"value": "https://covid-193.p.rapidapi.com",
			"enabled": true
		},
		{
			"key": "LocalBaseUrl",
			"value": "http://localhost:8080/api",
			"type": "default",
			"enabled": true
		},
		{
			"key": "token",
			"value": "",
			"type": "default",
			"enabled": true
		}
	],
	"_postman_variable_scope": "environment",
	"_postman_exported_at": "2022-02-22T07:01:25.866Z",
	"_postman_exported_using": "Postman/9.14.2"
}