{
	"info": {
		"_postman_id": "5779c284-387d-412b-b1a5-43f7549ba7f3",
		"name": "RapidApi-COVID19",
		"schema": "https://schema.getpostman.com/json/collection/v2.1.0/collection.json"
	},
	"item": [
		{
			"name": "GetCountries",
			"request": {
				"auth": {
					"type": "apikey",
					"apikey": [
						{
							"key": "value",
							"value": "{{x-rapidapi-key}}",
							"type": "string"
						},
						{
							"key": "key",
							"value": "x-rapidapi-key",
							"type": "string"
						}
					]
				},
				"method": "GET",
				"header": [
					{
						"key": "x-rapidapi-host",
						"value": "{{x-rapidapi-host}}",
						"type": "text"
					}
				],
				"url": {
					"raw": "{{BaseURL}}/countries",
					"host": [
						"{{BaseURL}}"
					],
					"path": [
						"countries"
					]
				}
			},
			"response": []
		},
		{
			"name": "GetHistory-Croatia",
			"request": {
				"auth": {
					"type": "apikey",
					"apikey": [
						{
							"key": "value",
							"value": "{{x-rapidapi-key}}",
							"type": "string"
						},
						{
							"key": "key",
							"value": "x-rapidapi-key",
							"type": "string"
						}
					]
				},
				"method": "GET",
				"header": [
					{
						"key": "x-rapidapi-host",
						"value": "{{x-rapidapi-host}}",
						"type": "text"
					}
				],
				"url": {
					"raw": "{{BaseURL}}/history?country=croatia&day=2022-02-14",
					"host": [
						"{{BaseURL}}"
					],
					"path": [
						"history"
					],
					"query": [
						{
							"key": "country",
							"value": "croatia"
						},
						{
							"key": "day",
							"value": "2022-02-14"
						}
					]
				}
			},
			"response": []
		},
		{
			"name": "GetStatistics",
			"request": {
				"auth": {
					"type": "apikey",
					"apikey": [
						{
							"key": "value",
							"value": "{{x-rapidapi-key}}",
							"type": "string"
						},
						{
							"key": "key",
							"value": "x-rapidapi-key",
							"type": "string"
						}
					]
				},
				"method": "GET",
				"header": [
					{
						"key": "x-rapidapi-host",
						"value": "{{x-rapidapi-host}}",
						"type": "text"
					}
				],
				"url": {
					"raw": "{{BaseURL}}/statistics?country=croatia",
					"host": [
						"{{BaseURL}}"
					],
					"path": [
						"statistics"
					],
					"query": [
						{
							"key": "country",
							"value": "croatia"
						}
					]
				}
			},
			"response": []
		},
		{
			"name": "CES-Hello",
			"request": {
				"method": "GET",
				"header": [],
				"url": {
					"raw": "{{LocalBaseUrl}}/home/hello?name=jurica",
					"host": [
						"{{LocalBaseUrl}}"
					],
					"path": [
						"home",
						"hello"
					],
					"query": [
						{
							"key": "name",
							"value": "jurica"
						}
					]
				}
			},
			"response": []
		},
		{
			"name": "CES-Register",
			"event": [
				{
					"listen": "test",
					"script": {
						"exec": [
							"pm.test(\"Status code is 200\", function () {\r",
							"    pm.response.to.have.status(200);\r",
							"   var jsonData = pm.response.json();\r",
							"    pm.environment.set(\"token\", jsonData.token);\r",
							"});"
						],
						"type": "text/javascript"
					}
				}
			],
			"request": {
				"method": "POST",
				"header": [],
				"body": {
					"mode": "raw",
					"raw": "{\r\n    \"username\":\"jurica.drvo@gmail.com\",\r\n    \"password\":\"pass1234\",\r\n    \"firstName\":\"Jurica\",\r\n    \"lastName\":\"Drvoderic\"\r\n}",
					"options": {
						"raw": {
							"language": "json"
						}
					}
				},
				"url": {
					"raw": "{{LocalBaseUrl}}/auth/register",
					"host": [
						"{{LocalBaseUrl}}"
					],
					"path": [
						"auth",
						"register"
					]
				}
			},
			"response": []
		},
		{
			"name": "CES-Authenticate",
			"event": [
				{
					"listen": "test",
					"script": {
						"exec": [
							"pm.test(\"Status code is 200\", function () {\r",
							"    pm.response.to.have.status(200);\r",
							"   var jsonData = pm.response.json();\r",
							"    pm.environment.set(\"token\", jsonData.token);\r",
							"});"
						],
						"type": "text/javascript"
					}
				}
			],
			"request": {
				"method": "POST",
				"header": [],
				"body": {
					"mode": "raw",
					"raw": "{\r\n    \"username\":\"jurica.drvo@gmail.com\",\r\n    \"password\":\"pass1234\"\r\n}",
					"options": {
						"raw": {
							"language": "json"
						}
					}
				},
				"url": {
					"raw": "{{LocalBaseUrl}}/auth/authenticate",
					"host": [
						"{{LocalBaseUrl}}"
					],
					"path": [
						"auth",
						"authenticate"
					]
				}
			},
			"response": []
		},
		{
			"name": "CES-RapidApi-GetCountries",
			"request": {
				"auth": {
					"type": "bearer",
					"bearer": [
						{
							"key": "token",
							"value": "{{token}}",
							"type": "string"
						}
					]
				},
				"method": "GET",
				"header": [],
				"url": {
					"raw": "{{LocalBaseUrl}}/rapidApi/getCountries",
					"host": [
						"{{LocalBaseUrl}}"
					],
					"path": [
						"rapidApi",
						"getCountries"
					]
				}
			},
			"response": []
		},
		{
			"name": "CES-RapidApi-GetHistory",
			"request": {
				"auth": {
					"type": "bearer",
					"bearer": [
						{
							"key": "token",
							"value": "{{token}}",
							"type": "string"
						}
					]
				},
				"method": "GET",
				"header": [],
				"url": {
					"raw": "{{LocalBaseUrl}}/rapidApi/getHistory?country=croatia&day=2022-02-14",
					"host": [
						"{{LocalBaseUrl}}"
					],
					"path": [
						"rapidApi",
						"getHistory"
					],
					"query": [
						{
							"key": "country",
							"value": "croatia"
						},
						{
							"key": "day",
							"value": "2022-02-14"
						}
					]
				}
			},
			"response": []
		},
		{
			"name": "CES-Search-By",
			"request": {
				"auth": {
					"type": "bearer",
					"bearer": [
						{
							"key": "token",
							"value": "{{token}}",
							"type": "string"
						}
					]
				},
				"method": "GET",
				"header": [],
				"url": {
					"raw": "{{LocalBaseUrl}}/search/by?country=Croatia&dateFrom=2022-01-10&dateTo=2022-01-20",
					"host": [
						"{{LocalBaseUrl}}"
					],
					"path": [
						"search",
						"by"
					],
					"query": [
						{
							"key": "country",
							"value": "Croatia"
						},
						{
							"key": "dateFrom",
							"value": "2022-01-10"
						},
						{
							"key": "dateTo",
							"value": "2022-01-20"
						}
					]
				}
			},
			"response": []
		},
		{
			"name": "CES-Recycle-By",
			"request": {
				"auth": {
					"type": "bearer",
					"bearer": [
						{
							"key": "token",
							"value": "{{token}}",
							"type": "string"
						}
					]
				},
				"method": "DELETE",
				"header": [],
				"url": {
					"raw": "{{LocalBaseUrl}}/recycle/by?country=Croatia&dateFrom=2022-02-10&dateTo=2022-02-20",
					"host": [
						"{{LocalBaseUrl}}"
					],
					"path": [
						"recycle",
						"by"
					],
					"query": [
						{
							"key": "country",
							"value": "Croatia"
						},
						{
							"key": "dateFrom",
							"value": "2022-02-10"
						},
						{
							"key": "dateTo",
							"value": "2022-02-20"
						}
					]
				}
			},
			"response": []
		},
		{
			"name": "CES-Recycle-All",
			"request": {
				"auth": {
					"type": "bearer",
					"bearer": [
						{
							"key": "token",
							"value": "{{token}}",
							"type": "string"
						}
					]
				},
				"method": "DELETE",
				"header": [],
				"url": {
					"raw": "{{LocalBaseUrl}}/recycle/all",
					"host": [
						"{{LocalBaseUrl}}"
					],
					"path": [
						"recycle",
						"all"
					]
				}
			},
			"response": []
		}
	]
}